Computation and Visualization in R
…
## # A tibble: 5 x 11
##   manufacturer model displ  year   cyl trans      drv     cty   hwy fl    class
##   <chr>        <chr> <dbl> <int> <int> <chr>      <chr> <int> <int> <chr> <chr>
## 1 audi         a4      1.8  1999     4 auto(l5)   f        18    29 p     compa~
## 2 audi         a4      1.8  1999     4 manual(m5) f        21    29 p     compa~
## 3 audi         a4      2    2008     4 manual(m6) f        20    31 p     compa~
## 4 audi         a4      2    2008     4 auto(av)   f        21    30 p     compa~
## 5 audi         a4      2.8  1999     6 auto(l5)   f        16    26 p     compa~

Dataset - Interviewing data

mpg[,c("displ","hwy")]

## # A tibble: 234 x 2
##    displ   hwy
##    <dbl> <int>
##  1   1.8    29
##  2   1.8    29
##  3   2      31
##  4   2      30
##  5   2.8    26
##  6   2.8    26
##  7   3.1    27
##  8   1.8    26
##  9   1.8    25
## 10   2      28
## # ... with 224 more rows
…
Base function in R:

flights[flights$month==1&flights$day==1,]

filter() function in dplyr:

filter(flights, month==1,day==1)

We only want to see the Jan.1st flights

jan <- filter(flights, month==1, day==1)
jan

## # A tibble: 842 × 19
##     year month   day dep_time sched_dep_time dep_delay arr_time sched_arr_time
##    <int> <int> <int>    <int>          <int>     <dbl>    <int>          <int>
##  1  2013     1     1      517            515         2      830            819
##  2  2013     1     1      533            529         4      850            830
##  3  2013     1     1      542            540         2      923            850
##  4  2013     1     1      544            545        -1     1004           1022
##  5  2013     1     1      554            600        -6      812            837
##  6  2013     1     1      554            558        -4      740            728
##  7  2013     1     1      555            600        -5      913            854
##  8  2013     1     1      557            600        -3      709            723
##  9  2013     1     1      557            600        -3      838            846
## 10  2013     1     1      558            600        -2      753            745
## # … with 832 more rows, and 11 more variables: arr_delay <dbl>, carrier <chr>,
## #   flight <int>, tailnum <chr>, origin <chr>, dest <chr>, air_time <dbl>,
## #   distance <dbl>, hour <dbl>, minute <dbl>, time_hour <dttm>

Filter rows with filter(): examples

dec25 <- filter(flights, month == 12, day == 25)
dec25

## # A tibble: 719 × 19
##     year month   day dep_time sched_dep_time dep_delay arr_time sched_arr_time
##    <int> <int> <int>    <int>          <int>     <dbl>    <int>          <int>
##  1  2013    12    25      456            500        -4      649            651
##  2  2013    12    25      524            515         9      805            814
##  3  2013    12    25      542            540         2      832            850
##  4  2013    12    25      546            550        -4     1022           1027
##  5  2013    12    25      556            600        -4      730            745
##  6  2013    12    25      557            600        -3      743            752
##  7  2013    12    25      557            600        -3      818            831
##  8  2013    12    25      559            600        -1      855            856
##  9  2013    12    25      559            600        -1      849            855
## 10  2013    12    25      600            600         0      850            846
## # … with 709 more rows, and 11 more variables: arr_delay <dbl>, carrier <chr>,
## #   flight <int>, tailnum <chr>, origin <chr>, dest <chr>, air_time <dbl>,
## #   distance <dbl>, hour <dbl>, minute <dbl>, time_hour <dttm>
…
To use filtering effectively, you have to know how to select the observations that you want using the comparison operators.

R provides the standard suite: >, >=, <, <=, != (not equal), and == (equal).

Flights on Feb~Dec, and before 28 th

filter(flights, month>1&!day>28)

Flights on Feb~Dec, and before 28 th

flights28 <- filter(flights, month>1&!day>28)
flights28

## # A tibble: 285,972 × 19
##     year month   day dep_time sched_dep_time dep_delay arr_time sched_arr_time
##    <int> <int> <int>    <int>          <int>     <dbl>    <int>          <int>
##  1  2013    10     1      447            500       -13      614            648
##  2  2013    10     1      522            517         5      735            757
##  3  2013    10     1      536            545        -9      809            855
##  4  2013    10     1      539            545        -6      801            827
##  5  2013    10     1      539            545        -6      917            933
##  6  2013    10     1      544            550        -6      912            932
##  7  2013    10     1      549            600       -11      653            716
##  8  2013    10     1      550            600       -10      648            700
##  9  2013    10     1      550            600       -10      649            659
## 10  2013    10     1      551            600        -9      727            730
## # … with 285,962 more rows, and 11 more variables: arr_delay <dbl>,
## #   carrier <chr>, flight <int>, tailnum <chr>, origin <chr>, dest <chr>,
## #   air_time <dbl>, distance <dbl>, hour <dbl>, minute <dbl>, time_hour <dttm>
…
Tips: %in%

A useful shorthand for this problem is x %in% y. This will select every row where x is one of the values in y. We could use it to rewrite the preceding code:
Retrieve the flights information on Jan, Feb, and Mar

filter(flights, month%in%c(1,2,3)) %>% head()

!= not equals to

Flights not on Feb

filter(flights, month!=2)

## # A tibble: 311,825 × 19
##     year month   day dep_time sched_dep_time dep_delay arr_time sched_arr_time
##    <int> <int> <int>    <int>          <int>     <dbl>    <int>          <int>
##  1  2013     1     1      517            515         2      830            819
##  2  2013     1     1      533            529         4      850            830
##  3  2013     1     1      542            540         2      923            850
##  4  2013     1     1      544            545        -1     1004           1022
##  5  2013     1     1      554            600        -6      812            837
##  6  2013     1     1      554            558        -4      740            728
##  7  2013     1     1      555            600        -5      913            854
##  8  2013     1     1      557            600        -3      709            723
##  9  2013     1     1      557            600        -3      838            846
## 10  2013     1     1      558            600        -2      753            745
## # … with 311,815 more rows, and 11 more variables: arr_delay <dbl>,
## #   carrier <chr>, flight <int>, tailnum <chr>, origin <chr>, dest <chr>,
## #   air_time <dbl>, distance <dbl>, hour <dbl>, minute <dbl>, time_hour <dttm>
…
