The Grammar of Graphics - Computation and Visualization in R
…
## # A tibble: 5 x 11
##   manufacturer model displ  year   cyl trans      drv     cty   hwy fl    class
##   <chr>        <chr> <dbl> <int> <int> <chr>      <chr> <int> <int> <chr> <chr>
## 1 audi         a4      1.8  1999     4 auto(l5)   f        18    29 p     compa~
## 2 audi         a4      1.8  1999     4 manual(m5) f        21    29 p     compa~
## 3 audi         a4      2    2008     4 manual(m6) f        20    31 p     compa~
## 4 audi         a4      2    2008     4 auto(av)   f        21    30 p     compa~
## 5 audi         a4      2.8  1999     6 auto(l5)   f        16    26 p     compa~

Dataset - Interviewing data

mpg[,c("displ","hwy")]

## # A tibble: 234 x 2
##    displ   hwy
##    <dbl> <int>
##  1   1.8    29
##  2   1.8    29
##  3   2      31
##  4   2      30
##  5   2.8    26
##  6   2.8    26
##  7   3.1    27
##  8   1.8    26
##  9   1.8    25
## 10   2      28
## # ... with 224 more rows
…
