Data Wrangling with tibbles, readr and tidyr - Computation and Visualization in R
…
## Rows: 398 Columns: 9
## ── Column specification ────────────────────────────────────────────────────────
## Delimiter: ","
## chr (2): horsepower, name
## dbl (7): mpg, cylinders, displacement, weight, acceleration, model_year, origin
##
## ℹ Use `spec()` to retrieve the full column specification for this data.
## ℹ Specify the column types or set `show_col_types = FALSE` to quiet this message.

df1

## # A tibble: 398 × 9
##      mpg cylinders displacement horsepower weight acceleration model_year origin
##    <dbl>     <dbl>        <dbl> <chr>       <dbl>        <dbl>      <dbl>  <dbl>
##  1    18         8          307 130          3504         12           70      1
##  2    15         8          350 165          3693         11.5         70      1
##  3    18         8          318 150          3436         11           70      1
##  4    16         8          304 150          3433         12           70      1
##  5    17         8          302 140          3449         10.5         70      1
##  6    15         8          429 198          4341         10           70      1
##  7    14         8          454 220          4354          9           70      1
##  8    14         8          440 215          4312          8.5         70      1
##  9    14         8          455 225          4425         10           70      1
## 10    15         8          390 190          3850          8.5         70      1
## # … with 388 more rows, and 1 more variable: name <chr>

df2 <- read_csv(readr_example("mtcars.csv"))

## Rows: 32 Columns: 11
## ── Column specification ────────────────────────────────────────────────────────
## Delimiter: ","
## dbl (11): mpg, cyl, disp, hp, drat, wt, qsec, vs, am, gear, carb
##
## ℹ Use `spec()` to retrieve the full column specification for this data.
## ℹ Specify the column types or set `show_col_types = FALSE` to quiet this message.

df2

## # A tibble: 32 × 11
##      mpg   cyl  disp    hp  drat    wt  qsec    vs    am  gear  carb
##    <dbl> <dbl> <dbl> <dbl> <dbl> <dbl> <dbl> <dbl> <dbl> <dbl> <dbl>
##  1  21       6  160    110  3.9   2.62  16.5     0     1     4     4
##  2  21       6  160    110  3.9   2.88  17.0     0     1     4     4
##  3  22.8     4  108     93  3.85  2.32  18.6     1     1     4     1
##  4  21.4     6  258    110  3.08  3.22  19.4     1     0     3     1
##  5  18.7     8  360    175  3.15  3.44  17.0     0     0     3     2
##  6  18.1     6  225    105  2.76  3.46  20.2     1     0     3     1
##  7  14.3     8  360    245  3.21  3.57  15.8     0     0     3     4
##  8  24.4     4  147.    62  3.69  3.19  20       1     0     4     2
##  9  22.8     4  141.    95  3.92  3.15  22.9     1     0     4     2
## 10  19.2     6  168.   123  3.92  3.44  18.3     1     0     4     4
## # … with 22 more rows
…
