…
### Dataset - Interviewing data

```r
mpg[,c("displ","hwy")]
```

```
## # A tibble: 234 x 2
##    displ   hwy
##    <dbl> <int>
##  1   1.8    29
##  2   1.8    29
##  3   2      31
##  4   2      30
##  5   2.8    26
##  6   2.8    26
##  7   3.1    27
##  8   1.8    26
##  9   1.8    25
## 10   2      28
## # ... with 224 more rows
```
…
